<?xml version="1.0" encoding="utf-8"?>
<!-- Generator: Adobe Illustrator 19.0.0, SVG Export Plug-In . SVG Version: 6.00 Build 0)  -->
<svg version="1.1" xmlns="http://www.w3.org/2000/svg" xmlns:xlink="http://www.w3.org/1999/xlink" x="0px" y="0px"
	 viewBox="0 0 512 512" style="enable-background:new 0 0 512 512;" xml:space="preserve">
<style type="text/css">
	.st0{fill:#4A494A;}
</style>
<g id="Layer_1">
	<g>
		<g id="XMLID_68_">
			<path id="XMLID_69_" class="st0" d="M259.5,227.4c18.8,0,34.1-15.3,34.1-34.1c0-18.8-15.3-34.1-34.1-34.1s-34.1,15.3-34.1,34.1
				C225.4,212.1,240.7,227.4,259.5,227.4z M140,193.3c0,18.8,15.3,34.1,34.1,34.1c18.8,0,34.1-15.3,34.1-34.1
				c0-18.8-15.3-34.1-34.1-34.1C155.3,159.1,140,174.4,140,193.3z M327.8,193.3c0-9.4,7.7-17.1,17.1-17.1c9.4,0,17.1,7.7,17.1,17.1
				c0,4.7,3.8,8.5,8.5,8.5c4.7,0,8.5-3.8,8.5-8.5c0-18.8-15.3-34.1-34.1-34.1c-18.8,0-34.1,15.3-34.1,34.1c0,4.7,3.8,8.5,8.5,8.5
				C324,201.8,327.8,198,327.8,193.3z M468.6,5.5H51.5c-25.1,0-48,22.4-48,46.9v285.9c0,26.4,24.9,42.7,48,42.7h148.3
				c4.7,0,8.5-3.8,8.5-8.5s-3.8-8.5-8.5-8.5H51.5c-14.9,0-30.9-10.3-30.9-25.6V52.4c0-15.1,15.3-29.9,30.9-29.9h417.1
				c15.4,0,29.9,14.5,29.9,29.9v243.2c0,4.7,3.8,8.5,8.5,8.5s8.5-3.8,8.5-8.5V52.4C515.5,27.9,493.1,5.5,468.6,5.5z M376.1,365.9
				c-10.4,10.4-17.6,24.9-24.4,38.9c-1,1.9-1.9,3.7-2.8,5.6c36.6-5.3,65.8-34.1,71.6-70.5c-2.9,1.4-5.8,2.8-8.7,4.1
				C399.2,349.9,386.2,355.9,376.1,365.9z M404.6,328.5c4.4-2,8.5-4,12.5-6.1l-34.9-34.9c-23.3-23.3-61.2-23.3-84.5,0
				c-23.3,23.3-23.3,61.2,0,84.5l34.2,34.2c1.5-2.9,3-5.9,4.5-9c7.2-14.5,15.3-30.9,27.7-43.4C376.2,341.7,391.3,334.7,404.6,328.5z
				 M418.4,251.3c-43.3-43.3-113.6-43.3-156.9,0c-43.2,43.3-43.2,113.6,0.1,157l111.5,106.8c1.6,1.5,3.7,2.4,5.9,2.4h128
				c4.7,0,8.5-3.8,8.5-8.5V355.6c0-2.2-0.9-4.3-2.4-5.9L418.4,251.3z M438.3,333.4c-3.4,50.6-44.1,91.4-94.8,94.8
				c-0.6,0-1.3,0.1-1.9,0.1c-7.6,0-14.9-3-20.3-8.4l-35.8-35.8c-29.9-29.9-29.9-78.7,0-108.6c29.9-30,78.7-30,108.6,0l35.8,35.8
				C435.8,317,438.9,325.1,438.3,333.4z"/>
		</g>
	</g>
</g>
<g id="Layer_2">
</g>
</svg>
